Summarize a rdocx or rpptx object — officer_summary • officerExtras
…
    See also

    Other summary functions: 
check_officer_summary(),
officer_summary_levels()

    Examples

docx_example <- read_officer(
  system.file("doc_examples", "example.docx", package = "officer")
)

officer_summary(docx_example)
#> # A tibble: 69 × 11
#>    doc_index content_type style_name text  level num_id row_id is_header cell_id
#>        <int> <chr>        <chr>      <chr> <dbl>  <int>  <int> <lgl>       <dbl>
#>  1         1 paragraph    heading 1  "Tit…    NA     NA     NA NA             NA
#>  2         2 paragraph    NA         "Lor…    NA     NA     NA NA             NA
#>  3         3 paragraph    heading 1  "Tit…    NA     NA     NA NA             NA
#>  4         4 paragraph    List Para… "Qui…     1      2     NA NA             NA
#>  5         5 paragraph    List Para… "Aug…     1      2     NA NA             NA
#>  6         6 paragraph    List Para… "Sap…     1      2     NA NA             NA
#>  7         7 paragraph    heading 2  "Sub…    NA     NA     NA NA             NA
#>  8         8 paragraph    List Para… "Qui…     1      1     NA NA             NA
#>  9         9 paragraph    List Para… "Aug…     1      1     NA NA             NA
#> 10        10 paragraph    List Para… "Sap…     1      1     NA NA             NA
#> # ℹ 59 more rows
#> # ℹ 2 more variables: col_span <dbl>, row_span <int>

pptx_example <- read_officer(
  "example.pptx", system.file("doc_examples", package = "officer")
)

officer_summary(pptx_example)
#> # A tibble: 54 × 9
#>    text  id    content_type slide_id row_id cell_id col_span row_span media_file
#>    <chr> <chr> <chr>           <int>  <int>   <int>    <int>    <int> <chr>     
#>  1 "Tit… 12    paragraph           1     NA      NA       NA       NA NA        
#>  2 "A t… 13    paragraph           1     NA      NA       NA       NA NA        
#>  3 "and… 13    paragraph           1     NA      NA       NA       NA NA        
#>  4 "and… 13    paragraph           1     NA      NA       NA       NA NA        
#>  5 "and… 13    paragraph           1     NA      NA       NA       NA NA        
#>  6 "Hea… 18    table cell          1      1       1        1        1 NA        
#>  7 "A"   18    table cell          1      2       1        1        1 NA        
#>  8 "B"   18    table cell          1      3       1        1        1 NA        
#>  9 "B"   18    table cell          1      4       1        1        1 NA        
#> 10 "C"   18    table cell          1      5       1        1        1 NA        
#> # ℹ 44 more rows
…
