…
## See also

Other summary functions:
[`check_officer_summary()`](https://elipousson.github.io/officerExtras/reference/check_officer_summary.md),
[`officer_summary_levels()`](https://elipousson.github.io/officerExtras/reference/officer_summary_levels.md)

## Examples

``` r
docx_example <- read_officer(
  system.file("doc_examples", "example.docx", package = "officer")
)

officer_summary(docx_example)
#> # A tibble: 56 × 11
#>    doc_index content_type style_name  text  table_index row_id cell_id is_header
#>        <int> <chr>        <chr>       <chr>       <int>  <int>   <int> <lgl>    
#>  1         1 paragraph    heading 1   "Tit…          NA     NA      NA NA       
#>  2         2 paragraph    NA          "Lor…          NA     NA      NA NA       
#>  3         3 paragraph    heading 1   "Tit…          NA     NA      NA NA       
#>  4         4 paragraph    List Parag… "Qui…          NA     NA      NA NA       
#>  5         5 paragraph    List Parag… "Aug…          NA     NA      NA NA       
#>  6         6 paragraph    List Parag… "Sap…          NA     NA      NA NA       
#>  7         7 paragraph    heading 2   "Sub…          NA     NA      NA NA       
#>  8         8 paragraph    List Parag… "Qui…          NA     NA      NA NA       
#>  9         9 paragraph    List Parag… "Aug…          NA     NA      NA NA       
#> 10        10 paragraph    List Parag… "Sap…          NA     NA      NA NA       
#> # ℹ 46 more rows
#> # ℹ 3 more variables: row_span <int>, col_span <chr>, table_stylename <chr>

pptx_example <- read_officer(
  "example.pptx", system.file("doc_examples", package = "officer")
)

officer_summary(pptx_example)
#> # A tibble: 54 × 9
#>    text  id    content_type slide_id row_id cell_id col_span row_span media_file
#>    <chr> <chr> <chr>           <int>  <int>   <int>    <int>    <int> <chr>     
#>  1 "Tit… 12    paragraph           1     NA      NA       NA       NA NA        
#>  2 "A t… 13    paragraph           1     NA      NA       NA       NA NA        
#>  3 "and… 13    paragraph           1     NA      NA       NA       NA NA        
#>  4 "and… 13    paragraph           1     NA      NA       NA       NA NA        
#>  5 "and… 13    paragraph           1     NA      NA       NA       NA NA        
#>  6 "Hea… 18    table cell          1      1       1        1        1 NA        
#>  7 "A"   18    table cell          1      2       1        1        1 NA        
#>  8 "B"   18    table cell          1      3       1        1        1 NA        
#>  9 "B"   18    table cell          1      4       1        1        1 NA        
#> 10 "C"   18    table cell          1      5       1        1        1 NA        
#> # ℹ 44 more rows
…
