Add a vector of objects to a rdocx object using add_to_body() — vec_add_to_body • officerExtras
…
if (rlang::is_installed("gt")) {
  gt_tbl <- gt::gt(gt::gtcars[1:2, 1:2])

  # list inputs such as gt tables must be passed within a list to avoid
  # issues
  docx_example <- vec_add_to_body(
    docx_example,
    gt_object = list(gt_tbl, gt_tbl),
    keyword = c("Sample text 1", "Sample text 2")
  )

  officer_summary(docx_example)
}
#> # A tibble: 24 × 11
#>    doc_index content_type style_name text  level num_id row_id is_header cell_id
#>        <int> <chr>        <chr>      <chr> <dbl>  <int>  <int> <lgl>       <dbl>
#>  1         1 paragraph    heading 1  Samp…    NA     NA     NA NA             NA
#>  2         2 table cell   NA         mfr      NA     NA      1 TRUE            1
#>  3         2 table cell   NA         Ford     NA     NA      2 FALSE           1
#>  4         2 table cell   NA         Ferr…    NA     NA      3 FALSE           1
#>  5         2 table cell   NA         model    NA     NA      1 TRUE            2
#>  6         2 table cell   NA         GT       NA     NA      2 FALSE           2
#>  7         2 table cell   NA         458 …    NA     NA      3 FALSE           2
#>  8         3 paragraph    heading 2  Samp…    NA     NA     NA NA             NA
#>  9         4 table cell   NA         mfr      NA     NA      1 TRUE            1
#> 10         4 table cell   NA         Ford     NA     NA      2 FALSE           1
#> # ℹ 14 more rows
#> # ℹ 2 more variables: col_span <dbl>, row_span <int>
…
