…
if (rlang::is_installed("gt")) {
  gt_tbl <- gt::gt(gt::gtcars[1:2, 1:2])

  # list inputs such as gt tables must be passed within a list to avoid
  # issues
  docx_example <- vec_add_to_body(
    docx_example,
    gt_object = list(gt_tbl, gt_tbl),
    keyword = c("Sample text 1", "Sample text 2")
  )

  officer_summary(docx_example)
}
#> # A tibble: 24 × 11
#>    doc_index content_type style_name text   table_index row_id cell_id is_header
#>        <int> <chr>        <chr>      <chr>        <int>  <int>   <int> <lgl>    
#>  1         2 paragraph    heading 1  "Samp…          NA     NA      NA NA       
#>  2         9 paragraph    heading 2  "Samp…          NA     NA      NA NA       
#>  3        16 paragraph    Normal     "Samp…          NA     NA      NA NA       
#>  4        17 paragraph    Normal     "Text"          NA     NA      NA NA       
#>  5        18 paragraph    NA         "\n"            NA     NA      NA NA       
#>  6        19 paragraph    Normal     "Text"          NA     NA      NA NA       
#>  7        20 paragraph    NA         "\n"            NA     NA      NA NA       
#>  8        21 paragraph    Normal     "Text"          NA     NA      NA NA       
#>  9        22 paragraph    NA         "\n"            NA     NA      NA NA       
#> 10        23 paragraph    Normal     "Text"          NA     NA      NA NA       
#> # ℹ 14 more rows
#> # ℹ 3 more variables: row_span <int>, col_span <chr>, table_stylename <chr>
```
